Lecture_02/Example01/02_REPORT/WAVEFORM.vcd
$date
	Sun Jul  7 20:08:03 2024
$end
$version
	Icarus Verilog
$end
$timescale
	1ps
$end
$scope module TESTBED $end
$var wire 1 ! rst_n $end
$var wire 1 " out_valid $end
$var wire 5 # out_2 [4:0] $end
$var wire 5 $ out_1 [4:0] $end
$var wire 1 % in_valid $end
$var wire 4 & in_2 [3:0] $end
$var wire 4 ' in_1 [3:0] $end
$var wire 1 ( clk $end
$scope module I_PATTERN $end
$var wire 1 " out_valid $end
$var wire 5 ) out_2 [4:0] $end
$var wire 5 * out_1 [4:0] $end
$var reg 1 ( clk $end
$var reg 5 + golden_ans_1 [4:0] $end
$var reg 5 , golden_ans_2 [4:0] $end
$var reg 4 - in_1 [3:0] $end
$var reg 4 . in_2 [3:0] $end
$var reg 1 % in_valid $end
$var reg 1 ! rst_n $end
$var real 1 / CYCLE $end
$var integer 32 0 PATNUM [31:0] $end
$var integer 32 1 input_gap [31:0] $end
$var integer 32 2 latency [31:0] $end
$var integer 32 3 patcount [31:0] $end
$var integer 32 4 total_latency [31:0] $end
$scope task YOU_PASS_task $end
$upscope $end
$scope task check_ans $end
$upscope $end
$scope task delay_task $end
$upscope $end
$scope task fail $end
$upscope $end
$scope task input_task $end
$upscope $end
$scope task reset_task $end
$upscope $end
$scope task wait_out_valid $end
$upscope $end
$upscope $end
$scope module I_design $end
$var wire 1 ( clk $end
$var wire 4 5 in_1 [3:0] $end
$var wire 4 6 in_2 [3:0] $end
$var wire 1 % in_valid $end
$var wire 1 ! rst_n $end
$var reg 5 7 out_1 [4:0] $end
$var reg 5 8 out_1_comb [4:0] $end
$var reg 5 9 out_2 [4:0] $end
$var reg 5 : out_2_comb [4:0] $end
$var reg 1 " out_valid $end
$upscope $end
$upscope $end
$enddefinitions $end
$comment Show the parameter values. $end
$dumpall
$end
#0
$dumpvars
b0 :
bx 9
b0 8
bx 7
bx 6
bx 5
b0 4
bx 3
b0 2
bx 1
b1111101000 0
r4 /
bx .
bx -
bx ,
bx +
bx *
bx )
0(
bx '
bx &
0%
bx $
bx #
x"
1!
$end
#500
b0 #
b0 )
b0 9
b0 $
b0 *
b0 7
0"
0!
#2000
0(
#3500
1!
#6500
b11 1
0(
#8000
1(
#10000
0(
#12000
1(
#14000
0(
#16000
1(
#18000
b1 1
b0 3
0(
#20000
1(
#22000
0(
#24000
1(
#26000
b11101 :
b11 8
b11101 ,
b11 +
b11 &
b11 .
b11 6
b0 '
b0 -
b0 5
1%
0(
#28000
b11101 #
b11101 )
b11101 9
b11 $
b11 *
b11 7
1"
1(
#30000
b0 :
b0 8
bx &
bx .
bx 6
bx '
bx -
bx 5
0%
0(
#32000
b0 #
b0 )
b0 9
b0 $
b0 *
b0 7
0"
1(
#34000
b10 1
b1 3
0(
#36000
1(
#38000
0(
#40000
1(
#42000
0(
#44000
1(
#46000
b1001 :
b1111 8
b1001 ,
b1111 +
b11 &
b11 .
b11 6
b1100 '
b1100 -
b1100 5
1%
0(
#48000
b1001 #
b1001 )
b1001 9
b1111 $
b1111 *
b1111 7
1"
1(
#50000
b0 :
b0 8
bx &
bx .
bx 6
bx '
bx -
bx 5
0%
0(
#52000
b0 #
b0 )
b0 9
b0 $
b0 *
b0 7
0"
1(
#54000
b0 1
b10 3
0(
#56000
1(
#58000
b10000 8
b0 ,
b10000 +
b1000 &
b1000 .
b1000 6
b1000 '
b1000 -
b1000 5
1%
0(
#60000
b10000 $
b10000 *
b10000 7
1"
1(
#62000
b0 8
bx &
bx .
bx 6
bx '
bx -
bx 5
0%
0(
#64000
b0 $
b0 *
b0 7
0"
1(
#66000
b10 1
b11 3
0(
#68000
1(
#70000
0(
#72000
1(
#74000
0(
#76000
1(
#78000
b11010 :
b11000 8
b11010 ,
b11000 +
b1111 &
b1111 .
b1111 6
b1001 '
b1001 -
b1001 5
1%
0(
#80000
b11010 #
b11010 )
b11010 9
b11000 $
b11000 *
b11000 7
1"
1(
#82000
b0 :
b0 8
bx &
bx .
bx 6
bx '
bx -
bx 5
0%
0(
#84000
b0 #
b0 )
b0 9
b0 $
b0 *
b0 7
0"
1(
#86000
b11 1
b100 3
0(
#88000
1(
#90000
0(
#92000
1(
#94000
0(
#96000
1(
#98000
0(
#100000
1(
#102000
b1001 :
b10101 8
b1001 ,
b10101 +
b110 &
b110 .
b110 6
b1111 '
b1111 -
b1111 5
1%
0(
#104000
b1001 #
b1001 )
b1001 9
b10101 $
b10101 *
b10101 7
1"
1(
#106000
b0 :
b0 8
bx &
bx .
bx 6
bx '
bx -
bx 5
0%
0(
#108000
b0 #
b0 )
b0 9
b0 $
b0 *
b0 7
0"
1(
#110000
b1 1
b101 3
0(
#112000
1(
#114000
0(
#116000
1(
#118000
b10110 :
b10100 8
b10110 ,
b10100 +
b1111 &
b1111 .
b1111 6
b101 '
b101 -
b101 5
1%
0(
#120000
b10110 #
b10110 )
b10110 9
b10100 $
b10100 *
b10100 7
1"
1(
#122000
b0 :
b0 8
bx &
bx .
bx 6
bx '
bx -
bx 5
0%
0(
#124000
b0 #
b0 )
b0 9
b0 $
b0 *
b0 7
0"
1(
#126000
b0 1
b110 3
0(
#128000
1(
#130000
b10100 :
b1100 8
b10100 ,
b1100 +
b1100 &
b1100 .
b1100 6
b0 '
b0 -
b0 5
1%
0(
#132000
b10100 #
b10100 )
b10100 9
b1100 $
b1100 *
b1100 7
1"
1(
#134000
b0 :
b0 8
bx &
bx .
bx 6
bx '
bx -
bx 5
0%
0(
#136000
b0 #
b0 )
b0 9
b0 $
b0 *
b0 7
0"
1(
#138000
b11 1
b111 3
0(
#140000
1(
#142000
0(
#144000
1(
#146000
0(
#148000
1(
#150000
0(
#152000
1(
#154000
b11111 :
b1101 8
b11111 ,
b1101 +
b111 &
b111 .
b111 6
b110 '
b110 -
b110 5
1%
0(
#156000
b11111 #
b11111 )
b11111 9
b1101 $
b1101 *
b1101 7
1"
1(
#158000
b0 :
b0 8
bx &
bx .
bx 6
bx '
bx -
bx 5
0%
0(
#160000
b0 #
b0 )
b0 9
b0 $
b0 *
b0 7
0"
1(
#162000
b1 1
b1000 3
0(
#164000
1(
#166000
0(
#168000
1(
#170000
b101 :
b1111 8
b101 ,
b1111 +
b101 &
b101 .
b101 6
b1010 '
b1010 -
b1010 5
1%
0(
#172000
b101 #
b101 )
b101 9
b1111 $
b1111 *
b1111 7
1"
1(
#174000
b0 :
b0 8
bx &
bx .
bx 6
bx '
bx -
bx 5
0%
0(
#176000
b0 #
b0 )
b0 9
b0 $
b0 *
b0 7
0"
1(
#178000
b0 1
b1001 3
0(
#180000
1(
#182000
b110 8
b0 ,
b110 +
b11 &
b11 .
b11 6
b11 '
b11 -
b11 5
1%
0(
#184000
b110 $
b110 *
b110 7
1"
1(
#186000
b0 8
bx &
bx .
bx 6
bx '
bx -
bx 5
0%
0(
#188000
b0 $
b0 *
b0 7
0"
1(
#190000
b10 1
b1010 3
0(
#192000
1(
#194000
0(
#196000
1(
#198000
0(
#200000
1(
#202000
b11011 :
b1101 8
b11011 ,
b1101 +
b1001 &
b1001 .
b1001 6
b100 '
b100 -
b100 5
1%
0(
#204000
b11011 #
b11011 )
b11011 9
b1101 $
b1101 *
b1101 7
1"
1(
#206000
b0 :
b0 8
bx &
bx .
bx 6
bx '
bx -
bx 5
0%
0(
#208000
b0 #
b0 )
b0 9
b0 $
b0 *
b0 7
0"
1(
#210000
b11 1
b1011 3
0(
#212000
1(
#214000
0(
#216000
1(
#218000
0(
#220000
1(
#222000
0(
#224000
1(
#226000
b1000 8
b0 ,
b1000 +
b100 &
b100 .
b100 6
b100 '
b100 -
b100 5
1%
0(
#228000
b1000 $
b1000 *
b1000 7
1"
1(
#230000
b0 8
bx &
bx .
bx 6
bx '
bx -
bx 5
0%
0(
#232000
b0 $
b0 *
b0 7
0"
1(
#234000
b0 1
b1100 3
0(
#236000
1(
#238000
b11110 :
b10 8
b11110 ,
b10 +
b10 &
b10 .
b10 6
b0 '
b0 -
b0 5
1%
0(
#240000
b11110 #
b11110 )
b11110 9
b10 $
b10 *
b10 7
1"
1(
#242000
b0 :
b0 8
bx &
bx .
bx 6
bx '
bx -
bx 5
0%
0(
#244000
b0 #
b0 )
b0 9
b0 $
b0 *
b0 7
0"
1(
#246000
b10 1
b1101 3
0(
#248000
1(
#250000
0(
#252000
1(
#254000
0(
#256000
1(
#258000
b110 :
b110 8
b110 ,
b110 +
b0 &
b0 .
b0 6
b110 '
b110 -
b110 5
1%
0(
#260000
b110 #
b110 )
b110 9
b110 $
b110 *
b110 7
1"
1(
#262000
b0 :
b0 8
bx &
bx .
bx 6
bx '
bx -
bx 5
0%
0(
#264000
b0 #
b0 )
b0 9
b0 $
b0 *
b0 7
0"
1(
#266000
b1 1
b1110 3
0(
#268000
1(
#270000
0(
#272000
1(
#274000
b10 :
b1110 8
b10 ,
b1110 +
b110 &
b110 .
b110 6
b1000 '
b1000 -
b1000 5
1%
0(
#276000
b10 #
b10 )
b10 9
b1110 $
b1110 *
b1110 7
1"
1(
#278000
b0 :
b0 8
bx &
bx .
bx 6
bx '
bx -
bx 5
0%
0(
#280000
b0 #
b0 )
b0 9
b0 $
b0 *
b0 7
0"
1(
#282000
b10 1
b1111 3
0(
#284000
1(
#286000
0(
#288000
1(
#290000
0(
#292000
1(
#294000
b10 :
b1110 8
b110 &
b110 .
b110 6
b1000 '
b1000 -
b1000 5
1%
0(
#296000
b10 #
b10 )
b10 9
b1110 $
b1110 *
b1110 7
1"
1(
#298000
b0 :
b0 8
bx &
bx .
bx 6
bx '
bx -
bx 5
0%
0(
#300000
b0 #
b0 )
b0 9
b0 $
b0 *
b0 7
0"
1(
#302000
b0 1
b10000 3
0(
#304000
1(
#306000
b11 :
b11011 8
b11 ,
b11011 +
b1100 &
b1100 .
b1100 6
b1111 '
b1111 -
b1111 5
1%
0(
#308000
b11 #
b11 )
b11 9
b11011 $
b11011 *
b11011 7
1"
1(
#310000
b0 :
b0 8
bx &
bx .
bx 6
bx '
bx -
bx 5
0%
0(
#312000
b0 #
b0 )
b0 9
b0 $
b0 *
b0 7
0"
1(
#314000
b10 1
b10001 3
0(
#316000
1(
#318000
0(
#320000
1(
#322000
0(
#324000
1(
#326000
b11011 :
b10001 8
b11011 ,
b10001 +
b1011 &
b1011 .
b1011 6
b110 '
b110 -
b110 5
1%
0(
#328000
b11011 #
b11011 )
b11011 9
b10001 $
b10001 *
b10001 7
1"
1(
#330000
b0 :
b0 8
bx &
bx .
bx 6
bx '
bx -
bx 5
0%
0(
#332000
b0 #
b0 )
b0 9
b0 $
b0 *
b0 7
0"
1(
#334000
b1 1
b10010 3
0(
#336000
1(
#338000
0(
#340000
1(
#342000
b10 :
b11100 8
b10 ,
b11100 +
b1101 &
b1101 .
b1101 6
b1111 '
b1111 -
b1111 5
1%
0(
#344000
b10 #
b10 )
b10 9
b11100 $
b11100 *
b11100 7
1"
1(
#346000
b0 :
b0 8
bx &
bx .
bx 6
bx '
bx -
bx 5
0%
0(
#348000
b0 #
b0 )
b0 9
b0 $
b0 *
b0 7
0"
1(
#350000
b11 1
b10011 3
0(
#352000
1(
#354000
0(
#356000
1(
#358000
0(
#360000
1(
#362000
0(
#364000
1(
#366000
b1000 :
b10010 8
b1000 ,
b10010 +
b101 &
b101 .
b101 6
b1101 '
b1101 -
b1101 5
1%
0(
#368000
b1000 #
b1000 )
b1000 9
b10010 $
b10010 *
b10010 7
1"
1(
#370000
b0 :
b0 8
bx &
bx .
bx 6
bx '
bx -
bx 5
0%
0(
#372000
b0 #
b0 )
b0 9
b0 $
b0 *
b0 7
0"
1(
#374000
b10 1
b10100 3
0(
#376000
1(
#378000
0(
#380000
1(
#382000
0(
#384000
1(
#386000
b11101 :
b11 8
b11101 ,
b11 +
b11 &
b11 .
b11 6
b0 '
b0 -
b0 5
1%
0(
#388000
b11101 #
b11101 )
b11101 9
b11 $
b11 *
b11 7
1"
1(
#390000
b0 :
b0 8
bx &
bx .
bx 6
bx '
bx -
bx 5
0%
0(
#392000
b0 #
b0 )
b0 9
b0 $
b0 *
b0 7
0"
1(
#394000
b11 1
b10101 3
0(
#396000
1(
#398000
0(
#400000
1(
#402000
0(
#404000
1(
#406000
0(
#408000
1(
#410000
b1001 :
b1011 8
b1001 ,
b1011 +
b1 &
b1 .
b1 6
b1010 '
b1010 -
b1010 5
1%
0(
#412000
b1001 #
b1001 )
b1001 9
b1011 $
b1011 *
b1011 7
1"
1(
#414000
b0 :
b0 8
bx &
bx .
bx 6
bx '
bx -
bx 5
0%
0(
#416000
b0 #
b0 )
b0 9
b0 $
b0 *
b0 7
0"
1(
#418000
b10 1
b10110 3
0(
#420000
1(
#422000
0(
#424000
1(
#426000
0(
#428000
1(
#430000
b11011 :
b1011 8
b11011 ,
b1000 &
b1000 .
b1000 6
b11 '
b11 -
b11 5
1%
0(
#432000
b11011 #
b11011 )
b11011 9
b1011 $
b1011 *
b1011 7
1"
1(
#434000
b0 :
b0 8
bx &
bx .
bx 6
bx '
bx -
bx 5
0%
0(
#436000
b0 #
b0 )
b0 9
b0 $
b0 *
b0 7
0"
1(
#438000
b11 1
b10111 3
0(
#440000
1(
#442000
0(
#444000
1(
#446000
0(
#448000
1(
#450000
0(
#452000
1(
#454000
b11 :
b11001 8
b11 ,
b11001 +
b1011 &
b1011 .
b1011 6
b1110 '
b1110 -
b1110 5
1%
0(
#456000
b11 #
b11 )
b11 9
b11001 $
b11001 *
b11001 7
1"
1(
#458000
b0 :
b0 8
bx &
bx .
bx 6
bx '
bx -
bx 5
0%
0(
#460000
b0 #
b0 )
b0 9
b0 $
b0 *
b0 7
0"
1(
#462000
b10 1
b11000 3
0(
#464000
1(
#466000
0(
#468000
1(
#470000
0(
#472000
1(
#474000
b11000 8
b0 ,
b11000 +
b1100 &
b1100 .
b1100 6
b1100 '
b1100 -
b1100 5
1%
0(
#476000
b11000 $
b11000 *
b11000 7
1"
1(
#478000
b0 8
bx &
bx .
bx 6
bx '
bx -
bx 5
0%
0(
#480000
b0 $
b0 *
b0 7
0"
1(
#482000
b11 1
b11001 3
0(
#484000
1(
#486000
0(
#488000
1(
#490000
0(
#492000
1(
#494000
0(
#496000
1(
#498000
b1 :
b1001 8
b1 ,
b1001 +
b100 &
b100 .
b100 6
b101 '
b101 -
b101 5
1%
0(
#500000
b1 #
b1 )
b1 9
b1001 $
b1001 *
b1001 7
1"
1(
#502000
b0 :
b0 8
bx &
bx .
bx 6
bx '
bx -
bx 5
0%
0(
#504000
b0 #
b0 )
b0 9
b0 $
b0 *
b0 7
0"
1(
#506000
b0 1
b11010 3
0(
#508000
1(
#510000
b10110 :
b1110 8
b10110 ,
b1110 +
b1100 &
b1100 .
b1100 6
b10 '
b10 -
b10 5
1%
0(
#512000
b10110 #
b10110 )
b10110 9
b1110 $
b1110 *
b1110 7
1"
1(
#514000
b0 :
b0 8
bx &
bx .
bx 6
bx '
bx -
bx 5
0%
0(
#516000
b0 #
b0 )
b0 9
b0 $
b0 *
b0 7
0"
1(
#518000
b11011 3
0(
#520000
1(
#522000
b1100 8
b0 ,
b1100 +
b110 &
b110 .
b110 6
b110 '
b110 -
b110 5
1%
0(
#524000
b1100 $
b1100 *
b1100 7
1"
1(
#526000
b0 8
bx &
bx .
bx 6
bx '
bx -
bx 5
0%
0(
#528000
b0 $
b0 *
b0 7
0"
1(
#530000
b11100 3
0(
#532000
1(
#534000
b100 :
b10100 8
b100 ,
b10100 +
b1000 &
b1000 .
b1000 6
b1100 '
b1100 -
b1100 5
1%
0(
#536000
b100 #
b100 )
b100 9
b10100 $
b10100 *
b10100 7
1"
1(
#538000
b0 :
b0 8
bx &
bx .
bx 6
bx '
bx -
bx 5
0%
0(
#540000
b0 #
b0 )
b0 9
b0 $
b0 *
b0 7
0"
1(
#542000
b1 1
b11101 3
0(
#544000
1(
#546000
0(
#548000
1(
#550000
b1011 :
b10001 8
b1011 ,
b10001 +
b11 &
b11 .
b11 6
b1110 '
b1110 -
b1110 5
1%
0(
#552000
b1011 #
b1011 )
b1011 9
b10001 $
b10001 *
b10001 7
1"
1(
#554000
b0 :
b0 8
bx &
bx .
bx 6
bx '
bx -
bx 5
0%
0(
#556000
b0 #
b0 )
b0 9
b0 $
b0 *
b0 7
0"
1(
#558000
b10 1
b11110 3
0(
#560000
1(
#562000
0(
#564000
1(
#566000
0(
#568000
1(
#570000
b101 :
b1011 8
b101 ,
b1011 +
b11 &
b11 .
b11 6
b1000 '
b1000 -
b1000 5
1%
0(
#572000
b101 #
b101 )
b101 9
b1011 $
b1011 *
b1011 7
1"
1(
#574000
b0 :
b0 8
bx &
bx .
bx 6
bx '
bx -
bx 5
0%
0(
#576000
b0 #
b0 )
b0 9
b0 $
b0 *
b0 7
0"
1(
#578000
b11111 3
0(
#580000
1(
#582000
0(
#584000
1(
#586000
0(
#588000
1(
#590000
b1 :
b10001 8
b1 ,
b10001 +
b1000 &
b1000 .
b1000 6
b1001 '
b1001 -
b1001 5
1%
0(
#592000
b1 #
b1 )
b1 9
b10001 $
b10001 *
b10001 7
1"
1(
#594000
b0 :
b0 8
bx &
bx .
bx 6
bx '
bx -
bx 5
0%
0(
#596000
b0 #
b0 )
b0 9
b0 $
b0 *
b0 7
0"
1(
#598000
b1 1
b100000 3
0(
#600000
1(
#602000
0(
#604000
1(
#606000
b1001 :
b1111 8
b1001 ,
b1111 +
b11 &
b11 .
b11 6
b1100 '
b1100 -
b1100 5
1%
0(
#608000
b1001 #
b1001 )
b1001 9
b1111 $
b1111 *
b1111 7
1"
1(
#610000
b0 :
b0 8
bx &
bx .
bx 6
bx '
bx -
bx 5
0%
0(
#612000
b0 #
b0 )
b0 9
b0 $
b0 *
b0 7
0"
1(
#614000
b10 1
b100001 3
0(
#616000
1(
#618000
0(
#620000
1(
#622000
0(
#624000
1(
#626000
b1001 :
b1011 8
b1011 +
b1 &
b1 .
b1 6
b1010 '
b1010 -
b1010 5
1%
0(
#628000
b1001 #
b1001 )
b1001 9
b1011 $
b1011 *
b1011 7
1"
1(
#630000
b0 :
b0 8
bx &
bx .
bx 6
bx '
bx -
bx 5
0%
0(
#632000
b0 #
b0 )
b0 9
b0 $
b0 *
b0 7
0"
1(
#634000
b100010 3
0(
#636000
1(
#638000
0(
#640000
1(
#642000
0(
#644000
1(
#646000
b110 :
b1110 8
b110 ,
b1110 +
b100 &
b100 .
b100 6
b1010 '
b1010 -
b1010 5
1%
0(
#648000
b110 #
b110 )
b110 9
b1110 $
b1110 *
b1110 7
1"
1(
#650000
b0 :
b0 8
bx &
bx .
bx 6
bx '
bx -
bx 5
0%
0(
#652000
b0 #
b0 )
b0 9
b0 $
b0 *
b0 7
0"
1(
#654000
b1 1
b100011 3
0(
#656000
1(
#658000
0(
#660000
1(
#662000
b10101 :
b10011 8
b10101 ,
b10011 +
b1111 &
b1111 .
b1111 6
b100 '
b100 -
b100 5
1%
0(
#664000
b10101 #
b10101 )
b10101 9
b10011 $
b10011 *
b10011 7
1"
1(
#666000
b0 :
b0 8
bx &
bx .
bx 6
bx '
bx -
bx 5
0%
0(
#668000
b0 #
b0 )
b0 9
b0 $
b0 *
b0 7
0"
1(
#670000
b0 1
b100100 3
0(
#672000
1(
#674000
b110 :
b10000 8
b110 ,
b10000 +
b101 &
b101 .
b101 6
b1011 '
b1011 -
b1011 5
1%
0(
#676000
b110 #
b110 )
b110 9
b10000 $
b10000 *
b10000 7
1"
1(
#678000
b0 :
b0 8
bx &
bx .
bx 6
bx '
bx -
bx 5
0%
0(
#680000
b0 #
b0 )
b0 9
b0 $
b0 *
b0 7
0"
1(
#682000
b100101 3
0(
#684000
1(
#686000
b11 :
b111 8
b11 ,
b111 +
b10 &
b10 .
b10 6
b101 '
b101 -
b101 5
1%
0(
#688000
b11 #
b11 )
b11 9
b111 $
b111 *
b111 7
1"
1(
#690000
b0 :
b0 8
bx &
bx .
bx 6
bx '
bx -
bx 5
0%
0(
#692000
b0 #
b0 )
b0 9
b0 $
b0 *
b0 7
0"
1(
#694000
b10 1
b100110 3
0(
#696000
1(
#698000
0(
#700000
1(
#702000
0(
#704000
1(
#706000
b1001 :
b10101 8
b1001 ,
b10101 +
b110 &
b110 .
b110 6
b1111 '
b1111 -
b1111 5
1%
0(
#708000
b1001 #
b1001 )
b1001 9
b10101 $
b10101 *
b10101 7
1"
1(
#710000
b0 :
b0 8
bx &
bx .
bx 6
bx '
bx -
bx 5
0%
0(
#712000
b0 #
b0 )
b0 9
b0 $
b0 *
b0 7
0"
1(
#714000
b1 1
b100111 3
0(
#716000
1(
#718000
0(
#720000
1(
#722000
b1 :
b10011 8
b1 ,
b10011 +
b1001 &
b1001 .
b1001 6
b1010 '
b1010 -
b1010 5
1%
0(
#724000
b1 #
b1 )
b1 9
b10011 $
b10011 *
b10011 7
1"
1(
#726000
b0 :
b0 8
bx &
bx .
bx 6
bx '
bx -
bx 5
0%
0(
#728000
b0 #
b0 )
b0 9
b0 $
b0 *
b0 7
0"
1(
#730000
b101000 3
0(
#732000
1(
#734000
0(
#736000
1(
#738000
b11 :
b1001 8
b11 ,
b1001 +
b11 &
b11 .
b11 6
b110 '
b110 -
b110 5
1%
0(
#740000
b11 #
b11 )
b11 9
b1001 $
b1001 *
b1001 7
1"
1(
#742000
b0 :
b0 8
bx &
bx .
bx 6
bx '
bx -
bx 5
0%
0(
#744000
b0 #
b0 )
b0 9
b0 $
b0 *
b0 7
0"
1(
#746000
b101001 3
0(
#748000
1(
#750000
0(
#752000
1(
#754000
b11011 :
b10001 8
b11011 ,
b10001 +
b1011 &
b1011 .
b1011 6
b110 '
b110 -
b110 5
1%
0(
#756000
b11011 #
b11011 )
b11011 9
b10001 $
b10001 *
b10001 7
1"
1(
#758000
b0 :
b0 8
bx &
bx .
bx 6
bx '
bx -
bx 5
0%
0(
#760000
b0 #
b0 )
b0 9
b0 $
b0 *
b0 7
0"
1(
#762000
b10 1
b101010 3
0(
#764000
1(
#766000
0(
#768000
1(
#770000
0(
#772000
1(
#774000
b11101 :
b1111 8
b11101 ,
b1111 +
b1001 &
b1001 .
b1001 6
b110 '
b110 -
b110 5
1%
0(
#776000
b11101 #
b11101 )
b11101 9
b1111 $
b1111 *
b1111 7
1"
1(
#778000
b0 :
b0 8
bx &
bx .
bx 6
bx '
bx -
bx 5
0%
0(
#780000
b0 #
b0 )
b0 9
b0 $
b0 *
b0 7
0"
1(
#782000
b11 1
b101011 3
0(
#784000
1(
#786000
0(
#788000
1(
#790000
0(
#792000
1(
#794000
0(
#796000
1(
#798000
b11010 :
b10110 8
b11010 ,
b10110 +
b1110 &
b1110 .
b1110 6
b1000 '
b1000 -
b1000 5
1%
0(
#800000
b11010 #
b11010 )
b11010 9
b10110 $
b10110 *
b10110 7
1"
1(
#802000
b0 :
b0 8
bx &
bx .
bx 6
bx '
bx -
bx 5
0%
0(
#804000
b0 #
b0 )
b0 9
b0 $
b0 *
b0 7
0"
1(
#806000
b1 1
b101100 3
0(
#808000
1(
#810000
0(
#812000
1(
#814000
b1 :
b1101 8
b1 ,
b1101 +
b110 &
b110 .
b110 6
b111 '
b111 -
b111 5
1%
0(
#816000
b1 #
b1 )
b1 9
b1101 $
b1101 *
b1101 7
1"
1(
#818000
b0 :
b0 8
bx &
bx .
bx 6
bx '
bx -
bx 5
0%
0(
#820000
b0 #
b0 )
b0 9
b0 $
b0 *
b0 7
0"
1(
#822000
b10 1
b101101 3
0(
#824000
1(
#826000
0(
#828000
1(
#830000
0(
#832000
1(
#834000
b111 :
b1101 8
b111 ,
b11 &
b11 .
b11 6
b1010 '
b1010 -
b1010 5
1%
0(
#836000
b111 #
b111 )
b111 9
b1101 $
b1101 *
b1101 7
1"
1(
#838000
b0 :
b0 8
bx &
bx .
bx 6
bx '
bx -
bx 5
0%
0(
#840000
b0 #
b0 )
b0 9
b0 $
b0 *
b0 7
0"
1(
#842000
b0 1
b101110 3
0(
#844000
1(
#846000
b1100 :
b1110 8
b1100 ,
b1110 +
b1 &
b1 .
b1 6
b1101 '
b1101 -
b1101 5
1%
0(
#848000
b1100 #
b1100 )
b1100 9
b1110 $
b1110 *
b1110 7
1"
1(
#850000
b0 :
b0 8
bx &
bx .
bx 6
bx '
bx -
bx 5
0%
0(
#852000
b0 #
b0 )
b0 9
b0 $
b0 *
b0 7
0"
1(
#854000
b10 1
b101111 3
0(
#856000
1(
#858000
0(
#860000
1(
#862000
0(
#864000
1(
#866000
b11001 :
b10001 8
b11001 ,
b10001 +
b1100 &
b1100 .
b1100 6
b101 '
b101 -
b101 5
1%
0(
#868000
b11001 #
b11001 )
b11001 9
b10001 $
b10001 *
b10001 7
1"
1(
#870000
b0 :
b0 8
bx &
bx .
bx 6
bx '
bx -
bx 5
0%
0(
#872000
b0 #
b0 )
b0 9
b0 $
b0 *
b0 7
0"
1(
#874000
b11 1
b110000 3
0(
#876000
1(
#878000
0(
#880000
1(
#882000
0(
#884000
1(
#886000
0(
#888000
1(
#890000
b11110 :
b10 8
b11110 ,
b10 +
b10 &
b10 .
b10 6
b0 '
b0 -
b0 5
1%
0(
#892000
b11110 #
b11110 )
b11110 9
b10 $
b10 *
b10 7
1"
1(
#894000
b0 :
b0 8
bx &
bx .
bx 6
bx '
bx -
bx 5
0%
0(
#896000
b0 #
b0 )
b0 9
b0 $
b0 *
b0 7
0"
1(
#898000
b110001 3
0(
#900000
1(
#902000
0(
#904000
1(
#906000
0(
#908000
1(
#910000
0(
#912000
1(
#914000
b10100 :
b10000 8
b10100 ,
b10000 +
b1110 &
b1110 .
b1110 6
b10 '
b10 -
b10 5
1%
0(
#916000
b10100 #
b10100 )
b10100 9
b10000 $
b10000 *
b10000 7
1"
1(
#918000
b0 :
b0 8
bx &
bx .
bx 6
bx '
bx -
bx 5
0%
0(
#920000
b0 #
b0 )
b0 9
b0 $
b0 *
b0 7
0"
1(
#922000
b0 1
b110010 3
0(
#924000
1(
#926000
b10101 :
b10001 8
b10101 ,
b10001 +
b1110 &
b1110 .
b1110 6
b11 '
b11 -
b11 5
1%
0(
#928000
b10101 #
b10101 )
b10101 9
b10001 $
b10001 *
b10001 7
1"
1(
#930000
b0 :
b0 8
bx &
bx .
bx 6
bx '
bx -
bx 5
0%
0(
#932000
b0 #
b0 )
b0 9
b0 $
b0 *
b0 7
0"
1(
#934000
b11 1
b110011 3
0(
#936000
1(
#938000
0(
#940000
1(
#942000
0(
#944000
1(
#946000
0(
#948000
1(
#950000
b1010 :
b1110 8
b1010 ,
b1110 +
b10 &
b10 .
b10 6
b1100 '
b1100 -
b1100 5
1%
0(
#952000
b1010 #
b1010 )
b1010 9
b1110 $
b1110 *
b1110 7
1"
1(
#954000
b0 :
b0 8
bx &
bx .
bx 6
bx '
bx -
bx 5
0%
0(
#956000
b0 #
b0 )
b0 9
b0 $
b0 *
b0 7
0"
1(
#958000
b10 1
b110100 3
0(
#960000
1(
#962000
0(
#964000
1(
#966000
0(
#968000
1(
#970000
b100 :
b11010 8
b100 ,
b11010 +
b1011 &
b1011 .
b1011 6
b1111 '
b1111 -
b1111 5
1%
0(
#972000
b100 #
b100 )
b100 9
b11010 $
b11010 *
b11010 7
1"
1(
#974000
b0 :
b0 8
bx &
bx .
bx 6
bx '
bx -
bx 5
0%
0(
#976000
b0 #
b0 )
b0 9
b0 $
b0 *
b0 7
0"
1(
#978000
b1 1
b110101 3
0(
#980000
1(
#982000
0(
#984000
1(
#986000
b11 :
b10101 8
b11 ,
b10101 +
b1001 &
b1001 .
b1001 6
b1100 '
b1100 -
b1100 5
1%
0(
#988000
b11 #
b11 )
b11 9
b10101 $
b10101 *
b10101 7
1"
1(
#990000
b0 :
b0 8
bx &
bx .
bx 6
bx '
bx -
bx 5
0%
0(
#992000
b0 #
b0 )
b0 9
b0 $
b0 *
b0 7
0"
1(
#994000
b0 1
b110110 3
0(
#996000
1(
#998000
b101 :
b111 8
b101 ,
b111 +
b1 &
b1 .
b1 6
b110 '
b110 -
b110 5
1%
0(
#1000000
b101 #
b101 )
b101 9
b111 $
b111 *
b111 7
1"
1(
#1002000
b0 :
b0 8
bx &
bx .
bx 6
bx '
bx -
bx 5
0%
0(
#1004000
b0 #
b0 )
b0 9
b0 $
b0 *
b0 7
0"
1(
#1006000
b110111 3
0(
#1008000
1(
#1010000
b1 :
b1111 8
b1 ,
b1111 +
b111 &
b111 .
b111 6
b1000 '
b1000 -
b1000 5
1%
0(
#1012000
b1 #
b1 )
b1 9
b1111 $
b1111 *
b1111 7
1"
1(
#1014000
b0 :
b0 8
bx &
bx .
bx 6
bx '
bx -
bx 5
0%
0(
#1016000
b0 #
b0 )
b0 9
b0 $
b0 *
b0 7
0"
1(
#1018000
b10 1
b111000 3
0(
#1020000
1(
#1022000
0(
#1024000
1(
#1026000
0(
#1028000
1(
#1030000
b10100 :
b1100 8
b10100 ,
b1100 +
b1100 &
b1100 .
b1100 6
b0 '
b0 -
b0 5
1%
0(
#1032000
b10100 #
b10100 )
b10100 9
b1100 $
b1100 *
b1100 7
1"
1(
#1034000
b0 :
b0 8
bx &
bx .
bx 6
bx '
bx -
bx 5
0%
0(
#1036000
b0 #
b0 )
b0 9
b0 $
b0 *
b0 7
0"
1(
#1038000
b1 1
b111001 3
0(
#1040000
1(
#1042000
0(
#1044000
1(
#1046000
b10110 :
b1100 8
b10110 ,
b1011 &
b1011 .
b1011 6
b1 '
b1 -
b1 5
1%
0(
#1048000
b10110 #
b10110 )
b10110 9
b1100 $
b1100 *
b1100 7
1"
1(
#1050000
b0 :
b0 8
bx &
bx .
bx 6
bx '
bx -
bx 5
0%
0(
#1052000
b0 #
b0 )
b0 9
b0 $
b0 *
b0 7
0"
1(
#1054000
b0 1
b111010 3
0(
#1056000
1(
